{
	"measurements": [
		{
			"partyId":"B1EDEA3C-1083-4E1A-81FB-7D95E505E102",
			"facilityId": "735999109112501170",
			"category": "ELECTRICITY",
			"aggregatedOn": "DAY",
			"measurementType": "Energy",
			"unit": "MWh",
			"value": 4.85,
			"timestamp": "2019-06-02T00:00:00+02:00",
			"interpolation": 0
		},
		{
			"partyId":"B1EDEA3C-1083-4E1A-81FB-7D95E505E102",
			"facilityId": "735999109112501170",
			"category": "ELECTRICITY",
			"aggregatedOn": "DAY",
			"measurementType": "Energy",
			"unit": "MWh",
			"value": 5.33,
			"timestamp": "2019-06-02T00:00:00+02:00",
			"interpolation": 0
		},
		{
			"partyId":"B1EDEA3C-1083-4E1A-81FB-7D95E505E102",
			"facilityId": "735999109112501170",
			"category": "ELECTRICITY",
			"aggregatedOn": "DAY",
			"measurementType": "Energy",
			"unit": "MWh",
			"value": 5.34,
			"timestamp": "2019-06-02T00:00:00+02:00",
			"interpolation": 0
		},
		{
			"partyId":"B1EDEA3C-1083-4E1A-81FB-7D95E505E102",
			"facilityId": "735999109112501170",
			"category": "ELECTRICITY",
			"aggregatedOn": "DAY",
			"measurementType": "Energy",
			"unit": "MWh",
			"value": 5.44,
			"timestamp": "2019-06-02T00:00:00+02:00",
			"interpolation": 0
		},
		{
			"partyId":"B1EDEA3C-1083-4E1A-81FB-7D95E505E102",
			"facilityId": "735999109112501170",
			"category": "ELECTRICITY",
			"aggregatedOn": "DAY",
			"measurementType": "Energy",
			"unit": "MWh",
			"value": 5.66,
			"timestamp": "2019-06-02T00:00:00+02:00",
			"interpolation": 0
		},
		{
			"partyId":"B1EDEA3C-1083-4E1A-81FB-7D95E505E102",
			"facilityId": "735999109112501170",
			"category": "ELECTRICITY",
			"aggregatedOn": "DAY",
			"measurementType": "Energy",
			"unit": "MWh",
			"value": 5.73,
			"timestamp": "2019-06-02T00:00:00+02:00",
			"interpolation": 0
		},
		{
			"partyId":"B1EDEA3C-1083-4E1A-81FB-7D95E505E102",
			"facilityId": "735999109112501170",
			"category": "ELECTRICITY",
			"aggregatedOn": "DAY",
			"measurementType": "Energy",
			"unit": "MWh",
			"value": 8.507,
			"timestamp": "2019-06-02T00:00:00+02:00",
			"interpolation": 0
		},
		{
			"partyId":"B1EDEA3C-1083-4E1A-81FB-7D95E505E102",
			"facilityId": "735999109112501170",
			"category": "ELECTRICITY",
			"aggregatedOn": "DAY",
			"measurementType": "Energy",
			"unit": "MWh",
			"value": 10.01,
			"timestamp": "2019-06-02T00:00:00+02:00",
			"interpolation": 0
		},
		{
			"partyId":"B1EDEA3C-1083-4E1A-81FB-7D95E505E102",
			"facilityId": "735999109112501170",
			"category": "ELECTRICITY",
			"aggregatedOn": "DAY",
			"measurementType": "Energy",
			"unit": "MWh",
			"value": 11.02,
			"timestamp": "2019-06-02T00:00:00+02:00",
			"interpolation": 0
		},
		{
			"partyId":"B1EDEA3C-1083-4E1A-81FB-7D95E505E102",
			"facilityId": "735999109112501170",
			"category": "ELECTRICITY",
			"aggregatedOn": "DAY",
			"measurementType": "Energy",
			"unit": "MWh",
			"value": 11.22,
			"timestamp": "2019-06-02T00:00:00+02:00",
			"interpolation": 0
		}
	],
	"_meta": {
		"page": 2,
		"limit": 10,
		"count": 10,
		"sortBy": [
			"measurementTimestamp"
		],
		"sortDirection": "ASC",
		"totalRecords": 27,
		"totalPages": 3
	}
}